('Epoch', 0.0, 'Test Accuracy', 0.085500002)
('Epoch', 1.0, 'Test Accuracy', 0.61979997)
('Epoch', 2.0, 'Test Accuracy', 0.759)
('Epoch', 3.0, 'Test Accuracy', 0.81840003)
('Epoch', 4.0, 'Test Accuracy', 0.84439999)
('Epoch', 5.0, 'Test Accuracy', 0.86430001)
('Epoch', 6.0, 'Test Accuracy', 0.87690002)
('Epoch', 7.0, 'Test Accuracy', 0.8872)
('Epoch', 8.0, 'Test Accuracy', 0.8962)
('Epoch', 9.0, 'Test Accuracy', 0.90240002)
('Epoch', 10.0, 'Test Accuracy', 0.90829998)
('Epoch', 11.0, 'Test Accuracy', 0.9127)
('Epoch', 12.0, 'Test Accuracy', 0.9152)
('Epoch', 13.0, 'Test Accuracy', 0.9188)
('Epoch', 14.0, 'Test Accuracy', 0.92150003)
('Epoch', 15.0, 'Test Accuracy', 0.92460001)
('Epoch', 16.0, 'Test Accuracy', 0.92610002)
('Epoch', 17.0, 'Test Accuracy', 0.9285)
('Epoch', 18.0, 'Test Accuracy', 0.93089998)
('Epoch', 19.0, 'Test Accuracy', 0.93229997)
('Epoch', 20.0, 'Test Accuracy', 0.93580002)
('Epoch', 21.0, 'Test Accuracy', 0.9368)
('Epoch', 22.0, 'Test Accuracy', 0.93730003)
('Epoch', 23.0, 'Test Accuracy', 0.9393)
('Epoch', 24.0, 'Test Accuracy', 0.94169998)
('Epoch', 25.0, 'Test Accuracy', 0.94309998)
('Epoch', 26.0, 'Test Accuracy', 0.94459999)
('Epoch', 27.0, 'Test Accuracy', 0.94520003)
('Epoch', 28.0, 'Test Accuracy', 0.94669998)
('Epoch', 29.0, 'Test Accuracy', 0.949)
('Epoch', 30.0, 'Test Accuracy', 0.94950002)
('Epoch', 31.0, 'Test Accuracy', 0.95099998)
('Epoch', 32.0, 'Test Accuracy', 0.9515)
('Epoch', 33.0, 'Test Accuracy', 0.9522)
('Epoch', 34.0, 'Test Accuracy', 0.95319998)
('Epoch', 35.0, 'Test Accuracy', 0.95349997)
('Epoch', 36.0, 'Test Accuracy', 0.95380002)
('Epoch', 37.0, 'Test Accuracy', 0.95520002)
('Epoch', 38.0, 'Test Accuracy', 0.95569998)
('Epoch', 39.0, 'Test Accuracy', 0.95679998)
('Epoch', 40.0, 'Test Accuracy', 0.95700002)
('Epoch', 41.0, 'Test Accuracy', 0.95770001)
('Epoch', 42.0, 'Test Accuracy', 0.95819998)
('Epoch', 43.0, 'Test Accuracy', 0.95829999)
('Epoch', 44.0, 'Test Accuracy', 0.95969999)
